{
  "pagination": {
    "page": 1,
    "pageSize": 10,
    "totalPages": 5,
    "totalItems": 50
  },
  "data": [
    {
      "id": 1,
      "title": "Sample News Title",
      "image": {
        "src": "https://example.com/news1.jpg",
        "alt": "News image"
      },
      "categories": ["Technology", "News"],
      "publishedAt": "2024-02-12T10:00:00Z",
      "summary": "This is a sample news summary for testing purposes.",
      "authors": [
        {
          "name": "John Doe",
          "image": {
            "src": "https://example.com/author1.jpg",
            "alt": "Author photo"
          },
          "description": "Technology journalist"
        }
      ]
    }
  ]
}
